{
    "page":1,
    "total_results":297,
    "total_pages":15,
    "results":[
        {
            "vote_count":0,
            "id":429351,
            "video":false,
            "vote_average":0,
            "title":"12 Strong",
            "popularity":35.721754,
            "poster_path":"\/iFVFgcOEikwkf9gTBpWjDw7l69S.jpg",
            "original_language":"en",
            "original_title":"12 Strong",
            "genre_ids":[
                10752,
                18,
                36
            ],
            "backdrop_path":"\/x5EUEv1N9g4BCX9GQXKvv3nqMVo.jpg",
            "adult":false,
            "overview":"A team of CIA agents and special forces head into Afghanistan in the aftermath of the September 11th attacks in an attempt to dismantle the Taliban.",
            "release_date":"2018-01-18"
        },
        {
            "vote_count":0,
            "id":336843,
            "video":false,
            "vote_average":0,
            "title":"Maze Runner: The Death Cure",
            "popularity":30.406786,
            "poster_path":"\/2EBZeVp4I1UnH6pT78INflzMrtI.jpg",
            "original_language":"en",
            "original_title":"Maze Runner: The Death Cure",
            "genre_ids":[
                28,
                9648,
                878,
                53
            ],
            "backdrop_path":"\/ufUAOM5aVizNf8d5YLoutqrrlhq.jpg",
            "adult":false,
            "overview":"Thomas leads his group of escaped Gladers on their final and most dangerous mission yet. To save their friends, they must break into the legendary Last City, a WCKD-controlled labyrinth that may turn out to be the deadliest maze of all. Anyone who makes it out alive will get answers to the questions the Gladers have been asking since they first arrived in the maze.",
            "release_date":"2018-01-17"
        },
        {
            "vote_count":0,
            "id":449443,
            "video":false,
            "vote_average":0,
            "title":"Den of Thieves",
            "popularity":28.494864,
            "poster_path":"\/onnxOne4EVdpqtuTpEBtD1I8tdJ.jpg",
            "original_language":"en",
            "original_title":"Den of Thieves",
            "genre_ids":[
                80
            ],
            "backdrop_path":"\/s3FDBLH4qc1IcjexB05Qvbn3wxO.jpg",
            "adult":false,
            "overview":"While planning a bank heist, a thief gets trapped between two sets of criminals.",
            "release_date":"2018-01-18"
        },
        {
            "vote_count":7,
            "id":447665,
            "video":false,
            "vote_average":0,
            "title":"Kickboxer: Retaliation",
            "popularity":25.334187,
            "poster_path":"\/5EFXMBUoQHjgi5UxQ62Sj2RsIqM.jpg",
            "original_language":"en",
            "original_title":"Kickboxer: Retaliation",
            "genre_ids":[
                28,
                18
            ],
            "backdrop_path":"\/nTH63dIC9D9lWhQlvCu4zSoESKj.jpg",
            "adult":false,
            "overview":"One year after the events of \"Kickboxer: Vengeance\", Kurt Sloan has vowed never to return to Thailand. However, while gearing up for a MMA title shot, he finds himself sedated and forced back into Thailand, this time in prison. He is there because the ones responsible want him to face a 6'8\" 400 lbs. beast named Mongkut and in return for the fight, Kurt will get two million dollars and his freedom back. Kurt at first refuses, in which a bounty is placed on his head as a way to force him to face Mongkut. Kurt soon learns he will have no other choice and will undergo his most rigorous training yet under some unexpected mentors in order to face Mongkut in hopes to regain his freedom.",
            "release_date":"2018-01-26"
        },
        {
            "vote_count":0,
            "id":417261,
            "video":false,
            "vote_average":0,
            "title":"Forever My Girl",
            "popularity":21.310266,
            "poster_path":"\/hcushpAgo51nTpBAuTygLxiJ80h.jpg",
            "original_language":"en",
            "original_title":"Forever My Girl",
            "genre_ids":[
                10749
            ],
            "backdrop_path":"\/tUJTaWlDbdC5kTov5zFVCWfCzGO.jpg",
            "adult":false,
            "overview":"After being gone for a decade a country star returns home to the love he left behind.",
            "release_date":"2018-01-26"
        },
        {
            "vote_count":6,
            "id":401561,
            "video":false,
            "vote_average":0,
            "title":"Mom and Dad",
            "popularity":17.025407,
            "poster_path":"\/8M1bobAAPyUAoTmCOuEvTDWz75A.jpg",
            "original_language":"en",
            "original_title":"Mom and Dad",
            "genre_ids":[
                27,
                53
            ],
            "backdrop_path":"\/oOOyRaw8gPrUwD0zqVkt4DEzXwx.jpg",
            "adult":false,
            "overview":"A teenage girl and her little brother must survive a wild 24 hours during which a mass hysteria of unknown origins causes parents to turn violently on their own kids.",
            "release_date":"2018-01-19"
        },
        {
            "vote_count":0,
            "id":429202,
            "video":false,
            "vote_average":0,
            "title":"Vox Lux",
            "popularity":16.475831,
            "poster_path":"\/wOiubRKRWPHyqT2BIRpFto1FEDO.jpg",
            "original_language":"en",
            "original_title":"Vox Lux",
            "genre_ids":[
                10402,
                18
            ],
            "backdrop_path":null,
            "adult":false,
            "overview":"Drama set between 1999 and the present day, following a young woman as she rises from tragedy to become a pop superstar.",
            "release_date":"2018-01-18"
        },
        {
            "vote_count":0,
            "id":429415,
            "video":false,
            "vote_average":0,
            "title":"Extinction",
            "popularity":15.503686,
            "poster_path":null,
            "original_language":"en",
            "original_title":"Extinction",
            "genre_ids":[

            ],
            "backdrop_path":null,
            "adult":false,
            "overview":"A chief mechanic at a factory, haunted by nightmares in which his wife is assaulted, becomes a hero when Earth is invaded by an army bent on destruction.",
            "release_date":"2018-01-25"
        },
        {
            "vote_count":2,
            "id":338768,
            "video":false,
            "vote_average":0,
            "title":"Please Stand By",
            "popularity":13.450522,
            "poster_path":"\/bOubzFC71Kj5dOSNDziUWL6Hmhp.jpg",
            "original_language":"en",
            "original_title":"Please Stand By",
            "genre_ids":[
                35,
                18
            ],
            "backdrop_path":"\/oSS43fHkamqQzgqXVOUD9q6Hq4V.jpg",
            "adult":false,
            "overview":"A young autistic woman runs away from her caregiver in an attempt to submit her manuscript to a writing competition.",
            "release_date":"2018-01-26"
        },
        {
            "vote_count":0,
            "id":422615,
            "video":false,
            "vote_average":0,
            "title":"The Clapper",
            "popularity":11.844431,
            "poster_path":"\/rjSxV0WID9u9GSUcFpT70EZfbUM.jpg",
            "original_language":"en",
            "original_title":"The Clapper",
            "genre_ids":[
                35
            ],
            "backdrop_path":"\/dnBpa3Ih5TvgWs29G1J74akoXCi.jpg",
            "adult":false,
            "overview":"15 minutes of fame destroys the life of a man who works as a clapper in television.",
            "release_date":"2018-01-26"
        },
        {
            "vote_count":0,
            "id":491408,
            "video":false,
            "vote_average":0,
            "title":"Frozen in Love",
            "popularity":11.189157,
            "poster_path":"\/eSdbov0oLJ0eUnKJLsXwb6pwlkL.jpg",
            "original_language":"en",
            "original_title":"Frozen in Love",
            "genre_ids":[
                10770
            ],
            "backdrop_path":null,
            "adult":false,
            "overview":"When struggling bookstore owner Mary and the bad boy of professional hockey, Adam, are teamed together to help facilitate an image makeover for the other, they soon realize that opposites attract and they find themselves unexpectedly frozen in love.",
            "release_date":"2018-01-13"
        },
        {
            "vote_count":1,
            "id":459630,
            "video":false,
            "vote_average":0,
            "title":"Voldemort: Origins of the Heir",
            "popularity":10.061931,
            "poster_path":"\/u1ijC0w3zOsmuTvwVIZhcOOR9dx.jpg",
            "original_language":"en",
            "original_title":"Voldemort: Origins of the Heir",
            "genre_ids":[
                18,
                14,
                12
            ],
            "backdrop_path":null,
            "adult":false,
            "overview":"After his graduation from Hogwarts School of Witchcraft and Wizardry, Tom Riddle disappears. He comes back ten years later, with new powers and a new name. His journey in search of the secrets of dark magic has deeply changed him, and it's up to two old acquaintances to stop him before he reaches his goal: immortality.",
            "release_date":"2018-01-13"
        },
        {
            "vote_count":0,
            "id":492999,
            "video":false,
            "vote_average":0,
            "title":"Attack on Titan Movie 3",
            "popularity":9.547414,
            "poster_path":"\/eqXvfBaIiZxtWhFqW7Jtwndd75r.jpg",
            "original_language":"ja",
            "original_title":"劇場版 進撃の巨人 覚醒の咆哮",
            "genre_ids":[

            ],
            "backdrop_path":null,
            "adult":false,
            "overview":"Eren Yeager and others of the 104th Training Corps have just begun to become full members of the Survey Corps. As they ready themselves to face the Titans once again, their preparations are interrupted by the invasion of Wall Rose—but all is not as it seems as more mysteries are unraveled. As the Survey Corps races to save the wall, they uncover more about the invading Titans and the dark secrets of their own members.",
            "release_date":"2018-01-13"
        },
        {
            "vote_count":3,
            "id":337167,
            "video":false,
            "vote_average":0,
            "title":"Fifty Shades Freed",
            "popularity":9.07361,
            "poster_path":"\/iUDFe6B6bFPOAE13uoqH4eEU1cF.jpg",
            "original_language":"en",
            "original_title":"Fifty Shades Freed",
            "genre_ids":[
                18,
                10749
            ],
            "backdrop_path":"\/iuyE1qy9HoTsMg0DHB1KJxM94DJ.jpg",
            "adult":false,
            "overview":"The third installment of the Fifty Shades Trilogy.",
            "release_date":"2018-02-07"
        },
        {
            "vote_count":1,
            "id":370567,
            "video":false,
            "vote_average":0,
            "title":"Sherlock Gnomes",
            "popularity":8.842997,
            "poster_path":"\/nEKyrDJWjtouIhA1WzjNDhNfjIY.jpg",
            "original_language":"en",
            "original_title":"Sherlock Gnomes",
            "genre_ids":[
                10749,
                16,
                35,
                10751,
                14,
                9648
            ],
            "backdrop_path":"\/7JxkSFulzpHzY2ENmveMByw9rc6.jpg",
            "adult":false,
            "overview":"Garden gnomes, Gnomeo & Juliet, recruit renown detective, Sherlock Gnomes, to investigate the mysterious disappearance of other garden ornaments.",
            "release_date":"2018-01-18"
        },
        {
            "vote_count":0,
            "id":462961,
            "video":false,
            "vote_average":0,
            "title":"Karuppu Raja Vellai Raja",
            "popularity":8.790395,
            "poster_path":null,
            "original_language":"ta",
            "original_title":"கருப்பு ராஜா வெள்ளை ராஜா",
            "genre_ids":[
                53,
                28,
                35
            ],
            "backdrop_path":null,
            "adult":false,
            "overview":"Karuppu Raja Vellai Raja is an upcoming Indian Tamil language film, written by K. Subash, directed by Prabhu Deva and produced by Prabhu Deva Studios along with actor turned producer Iyswari Ganesh.",
            "release_date":"2018-01-14"
        },
        {
            "vote_count":0,
            "id":450994,
            "video":false,
            "vote_average":0,
            "title":"American Folk",
            "popularity":8.776301,
            "poster_path":"\/fi1cdX4j3Am9tBbWwW2x80QW9c6.jpg",
            "original_language":"en",
            "original_title":"American Folk",
            "genre_ids":[

            ],
            "backdrop_path":"\/u3W0EweWYuOY4RhF56jbr1Zv2Gg.jpg",
            "adult":false,
            "overview":"Two strangers, both folk musicians stranded in California, take a road trip to New York in the days after 9\/11. A story about the kindness of strangers and the power of music.",
            "release_date":"2018-01-26"
        },
        {
            "vote_count":1,
            "id":391710,
            "video":false,
            "vote_average":0,
            "title":"A Futile & Stupid Gesture",
            "popularity":8.088271,
            "poster_path":"\/kyHBeRgbbhs7kVrZYblVj9u2Xbd.jpg",
            "original_language":"en",
            "original_title":"A Futile & Stupid Gesture",
            "genre_ids":[

            ],
            "backdrop_path":null,
            "adult":false,
            "overview":"The life and times of groundbreaking National Lampoon satirist Douglas Kenney.",
            "release_date":"2018-01-26"
        },
        {
            "vote_count":0,
            "id":489930,
            "video":false,
            "vote_average":0,
            "title":"Blindspotting",
            "popularity":7.710138,
            "poster_path":"\/dSq0Zfjh0iyr2JiRNjcfBLTXbqy.jpg",
            "original_language":"en",
            "original_title":"Blindspotting",
            "genre_ids":[

            ],
            "backdrop_path":"\/icYJH1o0T4wlK5AQ5zkEo0GfLT.jpg",
            "adult":false,
            "overview":"A buddy comedy in a world that won’t let it be one.",
            "release_date":"2018-01-18"
        },
        {
            "vote_count":0,
            "id":494467,
            "video":false,
            "vote_average":0,
            "title":"Past Malice: An Emma Fielding Mystery",
            "popularity":7.61694,
            "poster_path":null,
            "original_language":"en",
            "original_title":"Past Malice: An Emma Fielding Mystery",
            "genre_ids":[

            ],
            "backdrop_path":null,
            "adult":false,
            "overview":"Archaeologist Emma Fielding is hired to consult on the acquisition of a castle-like estate that local legend states is cursed. But she finds herself in the middle of a murder case after discovering the body of the archaeologist she was hired to shadow in a secret chamber in the bowels of the huge building. Assisted by her friend, FBI special agent Jim Conner, Fielding must sift through clues and a long list of suspects, each of whom has their own reason for wanting the man dead, to determine who is the killer.",
            "release_date":"2018-01-14"
        }
    ]
}