{
    "page":1,
    "total_results":1243,
    "total_pages":63,
    "results":[
        {
            "vote_count":2,
            "id":484862,
            "video":false,
            "vote_average":10,
            "title":"Scooby-Doo! & Batman: The Brave and the Bold",
            "popularity":22.39173,
            "poster_path":"\/hSPeF1zoYH8kCOhFMu7x3B55zu6.jpg",
            "original_language":"en",
            "original_title":"Scooby-Doo! & Batman: The Brave and the Bold",
            "genre_ids":[
                16
            ],
            "backdrop_path":"\/jzJGD1aWW7ls6KCCRDIGP7MfdJk.jpg",
            "adult":false,
            "overview":"Batman teams up with the Scooby gang when villains from both of their worlds unite to wreak havoc on the city. Featuring classic DC villains like the Joker, Catwoman, Harley Quinn and the Riddler  alongside heroes like Aquaman, Black Canary, and Plastic Man. Also featuring classic Scooby-Doo villains like the Ghost Clown, Space Kook, and Miner 49er.",
            "release_date":"2018-01-09"
        },
        {
            "vote_count":1,
            "id":416153,
            "video":false,
            "vote_average":10,
            "title":"Arctic Justice: Thunder Squad",
            "popularity":2.6321,
            "poster_path":"\/ylUxw1Bau6Fj7C3S0V45Z5pKz9F.jpg",
            "original_language":"en",
            "original_title":"Arctic Justice: Thunder Squad",
            "genre_ids":[
                16
            ],
            "backdrop_path":"\/uTfdOozort4sp9kukWxEmdmRsqJ.jpg",
            "adult":false,
            "overview":"Swifty the Arctic fox works in the mail room of the Arctic Blast Delivery Service but dreams of one day becoming a Top Dog (the Arctic's star husky couriers). To prove himself worthy of the Top Dog role, Swifty secretly commandeers one of the sleds and delivers a mysterious package to a mysterious location. He stumbles upon a secret fortress where he comes face to face with Doc Walrus, a blubbery evil genius who walks around on mechanical legs and commands a loyal army of oddly polite puffin henchmen. Swifty soon discovers Doc Walrus' plan to melt the polar ice caps and flood the world in order to reign as supreme leader. Now, Swifty has to enlist the help of his friends: PB, an introverted polar bear, Lemmy, a scatterbrained albatross, Sal and Weez, two conspiracy theorist otters and Jade Fox, a tough as nails mechanic. This ragtag group of Arctic misfits has to band together to stop Doc Walrus' sinister plans and save the day.",
            "release_date":"2018-04-27"
        },
        {
            "vote_count":1,
            "id":466550,
            "video":false,
            "vote_average":10,
            "title":"Drive",
            "popularity":2.343907,
            "poster_path":"\/ha11cK3K2JtewCfacOf19uaMbyx.jpg",
            "original_language":"hi",
            "original_title":"धोनी",
            "genre_ids":[

            ],
            "backdrop_path":"\/1mCMIbrMUQUrTv2YKAuyuRGu0V.jpg",
            "adult":false,
            "overview":"An unnamed stunt driver who moonlights as a getaway driver. However, soon after he becomes attracted to a female neighbor whose husband owes some money to a local gangster, he is drawn deeper into a dangerous underworld.",
            "release_date":"2018-03-02"
        },
        {
            "vote_count":1,
            "id":497328,
            "video":false,
            "vote_average":10,
            "title":"Battalion",
            "popularity":3.8,
            "poster_path":"\/6HPHEXmgCA3Xfe6TB56inlGdmsR.jpg",
            "original_language":"en",
            "original_title":"Battalion",
            "genre_ids":[

            ],
            "backdrop_path":null,
            "adult":false,
            "overview":"After a war against an enemy from another world breaks out in the South Pacific, a group of freshly recruited U.S. Marines are sent to the front lines.",
            "release_date":"2018-01-09"
        },
        {
            "vote_count":1,
            "id":497536,
            "video":false,
            "vote_average":10,
            "title":"9 Satra",
            "popularity":3.8,
            "poster_path":"\/t5l0LDAb1BqbQoc2SvKhp2H2WSE.jpg",
            "original_language":"en",
            "original_title":"๙ ศาสตรา",
            "genre_ids":[
                14,
                16
            ],
            "backdrop_path":null,
            "adult":false,
            "overview":"When the mystical kingdom of Ramathep is besieged by a monstrous army of Yaksa Clan, the faith of the kingdom lies in a young Muay Thai warrior determined to use a sacred weapon -the 9th Satra- to restore peace to the kingdom.",
            "release_date":"2018-01-11"
        },
        {
            "vote_count":2,
            "id":497134,
            "video":false,
            "vote_average":9,
            "title":"Nora Hamzawi",
            "popularity":4.92,
            "poster_path":"\/xoPGFAQAlyARUc7zoTy5J0lTCFA.jpg",
            "original_language":"fr",
            "original_title":"Nora Hamzawi",
            "genre_ids":[
                35
            ],
            "backdrop_path":"\/p1df4pAZTJLVo4X0Zzg98LOkBD4.jpg",
            "adult":false,
            "overview":"",
            "release_date":"2018-01-10"
        },
        {
            "vote_count":1,
            "id":495156,
            "video":false,
            "vote_average":9,
            "title":"Comedy Aid 2017",
            "popularity":3.050138,
            "poster_path":"\/1RUtmflpoYKWAy2o1OjnMT7frXJ.jpg",
            "original_language":"da",
            "original_title":"Comedy Aid 2017",
            "genre_ids":[
                35
            ],
            "backdrop_path":"\/xtKgAi4KAJnMORlw8fuy7WWCsdo.jpg",
            "adult":false,
            "overview":"",
            "release_date":"2018-01-01"
        },
        {
            "vote_count":1,
            "id":496671,
            "video":false,
            "vote_average":9,
            "title":"Blood, Sweat and Lies",
            "popularity":2.6905,
            "poster_path":"\/x4uQ3lKw9HurNKjvJ4qBWyRR7eO.jpg",
            "original_language":"en",
            "original_title":"Blood, Sweat and Lies",
            "genre_ids":[

            ],
            "backdrop_path":"\/ugFPA38jjjfTkVLH2RNh4LqM4TE.jpg",
            "adult":false,
            "overview":"A recent gym junkie's new personal trainer starts to take their relationship to dangerous levels.",
            "release_date":"2018-01-05"
        },
        {
            "vote_count":6,
            "id":450720,
            "video":false,
            "vote_average":8,
            "title":"Arif V 216",
            "popularity":10.936179,
            "poster_path":"\/sUWkQqn5oB1USoFOLmk7Wzfw4QP.jpg",
            "original_language":"tr",
            "original_title":"Arif V 216",
            "genre_ids":[
                12,
                35,
                878
            ],
            "backdrop_path":"\/AoWqJqubIhZOusmy3ALsdGX6waL.jpg",
            "adult":false,
            "overview":"Arif V 216 is the sequel of G.O.R.A.",
            "release_date":"2018-01-05"
        },
        {
            "vote_count":1,
            "id":497656,
            "video":false,
            "vote_average":8,
            "title":"Mother, May I Dance with Mary Jane's Fist?: A Lifetone Original Movie",
            "popularity":3,
            "poster_path":"\/cuVTfZ8EkZhpEWTiMk5F3J5Hf4o.jpg",
            "original_language":"en",
            "original_title":"Mother, May I Dance with Mary Jane's Fist?: A Lifetone Original Movie",
            "genre_ids":[
                35,
                10770
            ],
            "backdrop_path":null,
            "adult":false,
            "overview":"In this homage to the melodramatic made-for-TV-movie genre, aspiring ballerina Mary Jane Stevens moves to a new town with her emotionally abusive mother in hopes of escaping her physically abusive father. Originally a play performed at the Upright Citizens Brigade theatre, the Adult Swim production was executive produced by Tim Heidecker and Eric Wareheim.",
            "release_date":"2018-01-07"
        },
        {
            "vote_count":1,
            "id":494541,
            "video":false,
            "vote_average":8,
            "title":"Shatru Gate",
            "popularity":1.437963,
            "poster_path":null,
            "original_language":"ne",
            "original_title":"Shatru Gate",
            "genre_ids":[
                10749,
                18,
                35
            ],
            "backdrop_path":"\/hATM2rHPPFLJ5YnfzUWTIu2M3Jy.jpg",
            "adult":false,
            "overview":"",
            "release_date":"2018-03-23"
        },
        {
            "vote_count":5,
            "id":426258,
            "video":false,
            "vote_average":7,
            "title":"The Strange Ones",
            "popularity":13.841959,
            "poster_path":"\/39gn1Mr9PPMYo5Zul9l972ZBfKk.jpg",
            "original_language":"en",
            "original_title":"The Strange Ones",
            "genre_ids":[
                53,
                18
            ],
            "backdrop_path":"\/qNwWRC1lRoy8Ls76Id7PvogdwEv.jpg",
            "adult":false,
            "overview":"Mysterious events surround the travels of two brothers as they make their way across a remote American landscape. On the surface all seems normal, but what appears to be a simple vacation soon gives way to a dark and complex web of secrets. This is the feature film version of the 2011 short film going by the same name.",
            "release_date":"2018-01-05"
        },
        {
            "vote_count":7,
            "id":433150,
            "video":false,
            "vote_average":6.6,
            "title":"Il ragazzo invisibile: Seconda generazione",
            "popularity":8.41105,
            "poster_path":"\/c4CXtdVSCHJlPyRjPdP85ATNrWV.jpg",
            "original_language":"it",
            "original_title":"Il ragazzo invisibile: Seconda generazione",
            "genre_ids":[

            ],
            "backdrop_path":null,
            "adult":false,
            "overview":"",
            "release_date":"2018-01-04"
        },
        {
            "vote_count":77,
            "id":406563,
            "video":false,
            "vote_average":6.6,
            "title":"Insidious: The Last Key",
            "popularity":130.362883,
            "poster_path":"\/nb9fc9INMg8kQ8L7sE7XTNsZnUX.jpg",
            "original_language":"en",
            "original_title":"Insidious: The Last Key",
            "genre_ids":[
                9648,
                53,
                27
            ],
            "backdrop_path":"\/auSRjQyVLw212IjATAbO3KOyxZg.jpg",
            "adult":false,
            "overview":"Parapsychologist Elise Rainier and her team travel to Five Keys, N.M., to investigate a man's claim of a haunting. Terror soon strikes when Rainier realizes that the house he lives in was her family's old home.",
            "release_date":"2018-01-03"
        },
        {
            "vote_count":3,
            "id":492257,
            "video":false,
            "vote_average":6,
            "title":"A Tale of Two Coreys",
            "popularity":9.92235,
            "poster_path":"\/4VppODEeoY4ek0R3gxCGPYNQ6t0.jpg",
            "original_language":"en",
            "original_title":"A Tale of Two Coreys",
            "genre_ids":[
                18
            ],
            "backdrop_path":"\/4dGEXMIj2g4PtKU7Na49jOvAZ5s.jpg",
            "adult":false,
            "overview":"The story of teen heartthrobs Corey Feldman and Corey Haim, whose lives were forever changed by the glitz, glamour, and the darker side of show business.",
            "release_date":"2018-01-06"
        },
        {
            "vote_count":3,
            "id":497327,
            "video":false,
            "vote_average":6,
            "title":"Asylum of Fear",
            "popularity":3.8,
            "poster_path":"\/lZDP4v6VymLIiOU9AoBkMLCt9bd.jpg",
            "original_language":"en",
            "original_title":"Asylum of Fear",
            "genre_ids":[
                9648,
                53,
                27
            ],
            "backdrop_path":"\/3lWilJkWXUI951sldBjnp95fmgf.jpg",
            "adult":false,
            "overview":"\"Asylum of Fear\" follows a team of paranormal investigators as they go on one last job to a haunted mental institution where children have reportedly gone missing. While searching for evidence of what is haunting the abandoned building, they stumble upon clues that reveal what made the former head doctor snap and go on a killing spree through the halls decades earlier. Unfortunately, the more they uncover, the more they struggle to make it out of the asylum alive because something inside wants that mystery to stay dead and buried.",
            "release_date":"2018-01-09"
        },
        {
            "vote_count":2,
            "id":449749,
            "video":false,
            "vote_average":6,
            "title":"The Leisure Seeker",
            "popularity":27.53145,
            "poster_path":"\/aqkC47nwJrF0irilInyk6ObQ1UU.jpg",
            "original_language":"en",
            "original_title":"The Leisure Seeker",
            "genre_ids":[
                18
            ],
            "backdrop_path":"\/wPsQGHr9BoN6r9HZwnPW0j8Jkao.jpg",
            "adult":false,
            "overview":"A runaway couple going on an unforgettable journey in the faithful old RV they call The Leisure Seeker, traveling from Boston to Key West. They recapture their passion for life and their love for each other on a road trip that provides revelation and surprise right up to the very end.",
            "release_date":"2018-01-03"
        },
        {
            "vote_count":1,
            "id":441186,
            "video":false,
            "vote_average":6,
            "title":"Adriana's Pact",
            "popularity":2.128327,
            "poster_path":"\/5DIzDL1c9Clrg44TPEW4sw3Bj2E.jpg",
            "original_language":"es",
            "original_title":"El pacto de Adriana",
            "genre_ids":[
                99
            ],
            "backdrop_path":null,
            "adult":false,
            "overview":"Adriana was always the director's favourite aunt. A confident woman settled in Australia, who, one day in 2007, is suddenly arrested while visiting her family in Chile and accused of having worked for dictator Pinochet's notorious secret police, DINA. The aunt denies these accusations. Her niece sets out to investigate Adriana's history and begins filming.",
            "release_date":"2018-01-11"
        },
        {
            "vote_count":1,
            "id":493762,
            "video":false,
            "vote_average":6,
            "title":"Love on the Slopes",
            "popularity":12.93894,
            "poster_path":"\/tnACSNPurWsD7syLa2hSEDoFCCf.jpg",
            "original_language":"en",
            "original_title":"Love on the Slopes",
            "genre_ids":[
                10770,
                10749
            ],
            "backdrop_path":"\/f1tCJpcGam8qFgpC9gbkv3L03ip.jpg",
            "adult":false,
            "overview":"NYC-based copy editor, Alex, is sent to Ridgeline Resort, an extreme sports outpost, to write a story for a travel writing competition. At first, she fails at everything – much to the chagrin of Cole, an extreme sports enthusiast who thinks this city girl should head back to New York. But when Alex offers to assist Cole with his local arts festival, he reluctantly obliges to be her guide as she faces her fears doing one extreme sport after the next.",
            "release_date":"2018-01-06"
        },
        {
            "vote_count":1,
            "id":494466,
            "video":false,
            "vote_average":6,
            "title":"Last Scene Alive: An Aurora Teagarden Mystery",
            "popularity":28.044696,
            "poster_path":"\/zedq1SNp9IDCFHzip5QcL7qjGEQ.jpg",
            "original_language":"en",
            "original_title":"Last Scene Alive: An Aurora Teagarden Mystery",
            "genre_ids":[
                10770,
                9648
            ],
            "backdrop_path":"\/kaLSZaCyX23erOXLtq8v4SZdoQZ.jpg",
            "adult":false,
            "overview":"There is excitement in the air when a Hollywood crew comes to Lawrenceton to film a movie about the town’s sleuthy librarian, Aurora Teagarden. However, when the film’s leading lady is found murdered in her dressing room, Aurora enlists her Real Murders Club members to help gather clues. At the same time, she experiences mounting concern that Aida is becoming attracted to the film’s director who, like everyone else working on the set that day, is considered a suspect. And this time around Martin is especially worried about Aurora’s safety after learning that the film’s screenwriter, who has a romantic history with her, emerges as the prime suspect.",
            "release_date":"2018-01-07"
        }
    ]
}