{
    "page":1,
    "total_results":11258,
    "total_pages":563,
    "results":[
        {
            "vote_count":5617,
            "id":346364,
            "video":false,
            "vote_average":7.2,
            "title":"It",
            "popularity":806.788536,
            "poster_path":"\/9E2y5Q7WlCVNEhP5GiVTjhEhx1o.jpg",
            "original_language":"en",
            "original_title":"It",
            "genre_ids":[
                53,
                18,
                27,
                14
            ],
            "backdrop_path":"\/tcheoA2nPATCm2vvXw2hVQoaEFD.jpg",
            "adult":false,
            "overview":"In a small town in Maine, seven children known as The Losers Club come face to face with life problems, bullies and a monster that takes the shape of a clown called Pennywise.",
            "release_date":"2017-09-05"
        },
        {
            "vote_count":1245,
            "id":353486,
            "video":false,
            "vote_average":6.4,
            "title":"Jumanji: Welcome to the Jungle",
            "popularity":571.19199,
            "poster_path":"\/bXrZ5iHBEjH7WMidbUDQ0U2xbmr.jpg",
            "original_language":"en",
            "original_title":"Jumanji: Welcome to the Jungle",
            "genre_ids":[
                28,
                12,
                35,
                10751
            ],
            "backdrop_path":"\/rz3TAyd5kmiJmozp3GUbYeB5Kep.jpg",
            "adult":false,
            "overview":"The tables are turned as four teenagers are sucked into Jumanji's world - pitted against rhinos, black mambas and an endless variety of jungle traps and puzzles. To survive, they'll play as characters from the game.",
            "release_date":"2017-12-08"
        },
        {
            "vote_count":2868,
            "id":181808,
            "video":false,
            "vote_average":7.2,
            "title":"Star Wars: The Last Jedi",
            "popularity":560.890884,
            "poster_path":"\/xGWVjewoXnJhvxKW619cMzppJDQ.jpg",
            "original_language":"en",
            "original_title":"Star Wars: The Last Jedi",
            "genre_ids":[
                28,
                12,
                14,
                878
            ],
            "backdrop_path":"\/5Iw7zQTHVRBOYpA0V6z0yypOPZh.jpg",
            "adult":false,
            "overview":"Rey develops her newly discovered abilities with the guidance of Luke Skywalker, who is unsettled by the strength of her powers. Meanwhile, the Resistance prepares to do battle with the First Order.",
            "release_date":"2017-12-13"
        },
        {
            "vote_count":277,
            "id":460793,
            "video":false,
            "vote_average":6,
            "title":"Olaf's Frozen Adventure",
            "popularity":441.5406,
            "poster_path":"\/47pLZ1gr63WaciDfHCpmoiXJlVr.jpg",
            "original_language":"en",
            "original_title":"Olaf's Frozen Adventure",
            "genre_ids":[
                12,
                16,
                35,
                10751,
                14,
                10402
            ],
            "backdrop_path":"\/woCxv9kua5uqtRNaiWUBDzrgZnH.jpg",
            "adult":false,
            "overview":"Olaf is on a mission to harness the best holiday traditions for Anna, Elsa, and Kristoff.",
            "release_date":"2017-10-27"
        },
        {
            "vote_count":2481,
            "id":335984,
            "video":false,
            "vote_average":7.4,
            "title":"Blade Runner 2049",
            "popularity":333.752393,
            "poster_path":"\/gajva2L0rPYkEWjzgFlBXCAVBE5.jpg",
            "original_language":"en",
            "original_title":"Blade Runner 2049",
            "genre_ids":[
                9648,
                878,
                53
            ],
            "backdrop_path":"\/m7ynwXIvSnhxQPR6pOICrC0L2sO.jpg",
            "adult":false,
            "overview":"Thirty years after the events of the first film, a new blade runner, LAPD Officer K, unearths a long-buried secret that has the potential to plunge what's left of society into chaos. K's discovery leads him on a quest to find Rick Deckard, a former LAPD blade runner who has been missing for 30 years.",
            "release_date":"2017-10-04"
        },
        {
            "vote_count":496,
            "id":316029,
            "video":false,
            "vote_average":8,
            "title":"The Greatest Showman",
            "popularity":295.758226,
            "poster_path":"\/dfhztJRiElqmYW4kpvjYe1gENsD.jpg",
            "original_language":"en",
            "original_title":"The Greatest Showman",
            "genre_ids":[
                18,
                10751,
                10402,
                10749
            ],
            "backdrop_path":"\/zpq404Sk7qQ7N4x3xOeNgp74GtU.jpg",
            "adult":false,
            "overview":"The story of American showman P.T. Barnum, founder of the circus that became the famous traveling Ringling Bros. and Barnum & Bailey Circus.",
            "release_date":"2017-12-20"
        },
        {
            "vote_count":230,
            "id":399055,
            "video":false,
            "vote_average":6.9,
            "title":"The Shape of Water",
            "popularity":285.656423,
            "poster_path":"\/iLYLADGA5oKGM92Ns1j9CDgk3iI.jpg",
            "original_language":"en",
            "original_title":"The Shape of Water",
            "genre_ids":[
                18,
                14,
                10749
            ],
            "backdrop_path":"\/bAISaVhsaoyyQMZ55cpTwCdzek4.jpg",
            "adult":false,
            "overview":"An other-worldly story, set against the backdrop of Cold War era America circa 1962, where a mute janitor working at a lab falls in love with an amphibious man being held captive there and devises a plan to help him escape.",
            "release_date":"2017-12-01"
        },
        {
            "vote_count":1233,
            "id":354912,
            "video":false,
            "vote_average":7.6,
            "title":"Coco",
            "popularity":258.039452,
            "poster_path":"\/eKi8dIrr8voobbaGzDpe8w0PVbC.jpg",
            "original_language":"en",
            "original_title":"Coco",
            "genre_ids":[
                12,
                16,
                10751,
                14
            ],
            "backdrop_path":"\/askg3SMvhqEl4OL52YuvdtY40Yb.jpg",
            "adult":false,
            "overview":"Despite his family’s baffling generations-old ban on music, Miguel dreams of becoming an accomplished musician like his idol, Ernesto de la Cruz. Desperate to prove his talent, Miguel finds himself in the stunning and colorful Land of the Dead following a mysterious chain of events. Along the way, he meets charming trickster Hector, and together, they set off on an extraordinary journey to unlock the real story behind Miguel's family history.",
            "release_date":"2017-10-27"
        },
        {
            "vote_count":197,
            "id":347882,
            "video":false,
            "vote_average":5.4,
            "title":"Sleight",
            "popularity":206.347617,
            "poster_path":"\/wridRvGxDqGldhzAIh3IcZhHT5F.jpg",
            "original_language":"en",
            "original_title":"Sleight",
            "genre_ids":[
                18,
                53,
                28,
                878
            ],
            "backdrop_path":"\/2SEgJ0mHJ7TSdVDbkGU061tR33K.jpg",
            "adult":false,
            "overview":"A young street magician is left to take care of his little sister after his mother's passing and turns to drug dealing in the Los Angeles party scene to keep a roof over their heads. When he gets into trouble with his supplier, his sister is kidnapped and he is forced to rely on both his sleight of hand and brilliant mind to save her.",
            "release_date":"2017-04-28"
        },
        {
            "vote_count":91,
            "id":317091,
            "video":false,
            "vote_average":4.6,
            "title":"November Criminals",
            "popularity":190.53052,
            "poster_path":"\/m2JxGgarPvtemudLZ1CB6gLJeUb.jpg",
            "original_language":"en",
            "original_title":"November Criminals",
            "genre_ids":[
                80,
                18,
                9648
            ],
            "backdrop_path":"\/8j089OjNSlmsDqt9vrAAvj021Em.jpg",
            "adult":false,
            "overview":"Addison Schacht investigates the murder of his friend Kevin, with the help of Pheobe, and they discover the truth is darker than they ever imagined.",
            "release_date":"2017-12-08"
        },
        {
            "vote_count":144,
            "id":271404,
            "video":false,
            "vote_average":5.1,
            "title":"Beyond Skyline",
            "popularity":182.321071,
            "poster_path":"\/lQUJZIm2nQj4mIsm0sUcznhMdpD.jpg",
            "original_language":"en",
            "original_title":"Beyond Skyline",
            "genre_ids":[
                28,
                878
            ],
            "backdrop_path":"\/m5jvdwlI24XpFDSX79o97z76jis.jpg",
            "adult":false,
            "overview":"A tough-as-nails detective embarks on a relentless pursuit to free his son from a nightmarish alien warship.",
            "release_date":"2017-10-20"
        },
        {
            "vote_count":6540,
            "id":321612,
            "video":false,
            "vote_average":6.8,
            "title":"Beauty and the Beast",
            "popularity":178.589848,
            "poster_path":"\/tWqifoYuwLETmmasnGHO7xBjEtt.jpg",
            "original_language":"en",
            "original_title":"Beauty and the Beast",
            "genre_ids":[
                10751,
                14,
                10749
            ],
            "backdrop_path":"\/6aUWe0GSl69wMTSWWexsorMIvwU.jpg",
            "adult":false,
            "overview":"A live-action adaptation of Disney's version of the classic tale of a cursed prince and a beautiful young woman who helps him break the spell.",
            "release_date":"2017-03-16"
        },
        {
            "vote_count":211,
            "id":353616,
            "video":false,
            "vote_average":6.4,
            "title":"Pitch Perfect 3",
            "popularity":171.028258,
            "poster_path":"\/hQriQIpHUeh66I89gypFXtqEuVq.jpg",
            "original_language":"en",
            "original_title":"Pitch Perfect 3",
            "genre_ids":[
                35
            ],
            "backdrop_path":"\/1qIzlhLGPSm6TxlvXBWe0Q5er7O.jpg",
            "adult":false,
            "overview":"After the highs of winning the world championships, the Bellas find themselves split apart and discovering there aren't job prospects for making music with your mouth. But when they get the chance to reunite for an overseas USO tour, this group of awesome nerds will come together to make some music, and some questionable decisions, one last time.",
            "release_date":"2017-12-21"
        },
        {
            "vote_count":4176,
            "id":374720,
            "video":false,
            "vote_average":7.4,
            "title":"Dunkirk",
            "popularity":161.924863,
            "poster_path":"\/bOXBV303Fgkzn2K4FeKDc0O31q4.jpg",
            "original_language":"en",
            "original_title":"Dunkirk",
            "genre_ids":[
                28,
                18,
                36,
                53,
                10752
            ],
            "backdrop_path":"\/4yjJNAgXBmzxpS6sogj4ftwd270.jpg",
            "adult":false,
            "overview":"The story of the miraculous evacuation of Allied soldiers from Belgium, Britain, Canada and France, who were cut off and surrounded by the German army from the beaches and harbour of Dunkirk between May 26th and June 4th 1940 during World War II.",
            "release_date":"2017-07-19"
        },
        {
            "vote_count":2405,
            "id":141052,
            "video":false,
            "vote_average":6.5,
            "title":"Justice League",
            "popularity":160.370016,
            "poster_path":"\/9rtrRGeRnL0JKtu9IMBWsmlmmZz.jpg",
            "original_language":"en",
            "original_title":"Justice League",
            "genre_ids":[
                28,
                12,
                14,
                878
            ],
            "backdrop_path":"\/o5T8rZxoWSBMYwjsUFUqTt6uMQB.jpg",
            "adult":false,
            "overview":"Fueled by his restored faith in humanity and inspired by Superman's selfless act, Bruce Wayne and Diana Prince assemble a team of metahumans consisting of Barry Allen, Arthur Curry, and Victor Stone to face the catastrophic threat of Steppenwolf and the Parademons who are on the hunt for three Mother Boxes on Earth.",
            "release_date":"2017-11-15"
        },
        {
            "vote_count":234,
            "id":371638,
            "video":false,
            "vote_average":7.3,
            "title":"The Disaster Artist",
            "popularity":152.875308,
            "poster_path":"\/uCH6FOFsDW6pfvbbmIIswuvuNtM.jpg",
            "original_language":"en",
            "original_title":"The Disaster Artist",
            "genre_ids":[
                18,
                35,
                36
            ],
            "backdrop_path":"\/bAI7aPHQcvSZXvt7L11kMJdS0Gm.jpg",
            "adult":false,
            "overview":"An aspiring actor in Hollywood meets an enigmatic stranger by the name of Tommy Wiseau, the meeting leads the actor down a path nobody could have predicted; creating the worst movie ever made.",
            "release_date":"2017-11-30"
        },
        {
            "vote_count":2944,
            "id":281338,
            "video":false,
            "vote_average":6.8,
            "title":"War for the Planet of the Apes",
            "popularity":144.599764,
            "poster_path":"\/3vYhLLxrTtZLysXtIWktmd57Snv.jpg",
            "original_language":"en",
            "original_title":"War for the Planet of the Apes",
            "genre_ids":[
                18,
                878,
                10752
            ],
            "backdrop_path":"\/ulMscezy9YX0bhknvJbZoUgQxO5.jpg",
            "adult":false,
            "overview":"Caesar and his apes are forced into a deadly conflict with an army of humans led by a ruthless Colonel. After the apes suffer unimaginable losses, Caesar wrestles with his darker instincts and begins his own mythic quest to avenge his kind. As the journey finally brings them face to face, Caesar and the Colonel are pitted against each other in an epic battle that will determine the fate of both their species and the future of the planet.",
            "release_date":"2017-07-11"
        },
        {
            "vote_count":77,
            "id":406563,
            "video":false,
            "vote_average":6.6,
            "title":"Insidious: The Last Key",
            "popularity":130.362883,
            "poster_path":"\/nb9fc9INMg8kQ8L7sE7XTNsZnUX.jpg",
            "original_language":"en",
            "original_title":"Insidious: The Last Key",
            "genre_ids":[
                9648,
                53,
                27
            ],
            "backdrop_path":"\/auSRjQyVLw212IjATAbO3KOyxZg.jpg",
            "adult":false,
            "overview":"Parapsychologist Elise Rainier and her team travel to Five Keys, N.M., to investigate a man's claim of a haunting. Terror soon strikes when Rainier realizes that the house he lives in was her family's old home.",
            "release_date":"2018-01-03"
        },
        {
            "vote_count":1838,
            "id":335988,
            "video":false,
            "vote_average":6.1,
            "title":"Transformers: The Last Knight",
            "popularity":128.216693,
            "poster_path":"\/s5HQf2Gb3lIO2cRcFwNL9sn1o1o.jpg",
            "original_language":"en",
            "original_title":"Transformers: The Last Knight",
            "genre_ids":[
                28,
                878,
                53,
                12
            ],
            "backdrop_path":"\/Ytv7P13rbwQ3mLpCAY8lBTqI5s.jpg",
            "adult":false,
            "overview":"Autobots and Decepticons are at war, with humans on the sidelines. Optimus Prime is gone. The key to saving our future lies buried in the secrets of the past, in the hidden history of Transformers on Earth.",
            "release_date":"2017-06-16"
        },
        {
            "vote_count":38,
            "id":446354,
            "video":false,
            "vote_average":5.6,
            "title":"The Post",
            "popularity":108.398727,
            "poster_path":"\/5765ORvdKVX5bWmhEjjiOqLk3TH.jpg",
            "original_language":"en",
            "original_title":"The Post",
            "genre_ids":[
                18,
                36
            ],
            "backdrop_path":"\/8sb4aBST28vN3rBz704XJczS0Ld.jpg",
            "adult":false,
            "overview":"A cover-up that spanned four U.S. Presidents pushed the country's first female newspaper publisher and a hard-driving editor to join an unprecedented battle between journalist and government. Inspired by true events.",
            "release_date":"2017-12-22"
        }
    ]
}